…
Now we should spread the variables "DateReported" and "DateofDeath" from the DateType column into separate columns. We also know see that there are 5,105 rows in this dataset.

```r
df2 <- df %>% 
  spread(key = DateType, value = Date) %>% 
  select(-`<NA>`) #remove the new NA column
df2 <- df2[c(1,40,41, 2:39)] #reorder columns so that the variables DateofDeath and DateReported come after ID
df2%>%
  select(ID, DateofDeath, DateReported)
```

```
## # A tibble: 5,105 x 3
##    ID      DateofDeath            DateReported          
##    <chr>   <chr>                  <chr>                 
##  1 14-0273 <NA>                   06/28/2014 12:00:00 AM
##  2 13-0102 03/21/2013 12:00:00 AM <NA>                  
##  3 16-0165 03/13/2016 12:00:00 AM <NA>                  
##  4 16-0208 03/31/2016 12:00:00 AM <NA>                  
##  5 13-0052 02/13/2013 12:00:00 AM <NA>                  
##  6 14-0277 06/29/2014 12:00:00 AM <NA>                  
##  7 12-0205 08/12/2012 12:00:00 AM <NA>                  
##  8 13-0404 11/10/2013 12:00:00 AM <NA>                  
##  9 12-0107 04/25/2012 12:00:00 AM <NA>                  
## 10 13-0161 05/15/2013 12:00:00 AM <NA>                  
## # … with 5,095 more rows
```

Let's separate the day, month, year, and times from DateofDeath and DateReported. 

```r
df3 <- df2%>%
  separate(DateofDeath, into = c("DateofDeath", "TimeofDeath"), sep = 11)%>%
  separate(DateofDeath, into = c("DeathMonth", "DeathDay", "DeathYear"), sep = "/", convert = TRUE)%>%
  separate(DateReported, into = c("DateReported", "TimeofReport"), sep = 11)%>%
  separate(DateReported, into = c("ReportMonth", "ReportDay", "ReportYear"), sep = "/", convert = TRUE)
df3%>%
  select(ID, DeathMonth, DeathDay, DeathYear, TimeofDeath, ReportMonth, ReportDay, ReportYear, TimeofReport)
```

```
## # A tibble: 5,105 x 9
##    ID    DeathMonth DeathDay DeathYear TimeofDeath ReportMonth ReportDay
##    <chr>      <int>    <int>     <dbl> <chr>             <int>     <int>
##  1 14-0…         NA       NA        NA <NA>                  6        28
##  2 13-0…          3       21      2013 12:00:00 AM          NA        NA
##  3 16-0…          3       13      2016 12:00:00 AM          NA        NA
##  4 16-0…          3       31      2016 12:00:00 AM          NA        NA
##  5 13-0…          2       13      2013 12:00:00 AM          NA        NA
##  6 14-0…          6       29      2014 12:00:00 AM          NA        NA
##  7 12-0…          8       12      2012 12:00:00 AM          NA        NA
##  8 13-0…         11       10      2013 12:00:00 AM          NA        NA
##  9 12-0…          4       25      2012 12:00:00 AM          NA        NA
## 10 13-0…          5       15      2013 12:00:00 AM          NA        NA
## # … with 5,095 more rows, and 2 more variables: ReportYear <dbl>,
## #   TimeofReport <chr>
```
…
Let's apply the *captilalizeColumns* function to the columns that are all in uppercase.

```r
df3 <- df3%>%
  capitalizeColumns(c("ResidenceCity", "ResidenceCounty", "DeathCity", "DeathCounty", "InjuryCity", "InjuryCounty", "LocationifOther", "DescriptionofInjury", "InjuryPlace", "COD", "OtherSignifican"))
df3%>%
  select(ResidenceCity, ResidenceCounty, ResidenceState, DeathCity, DeathCounty, InjuryCity, InjuryCounty, LocationifOther, DescriptionofInjury, InjuryPlace, COD, OtherSignifican)
```

```
## # A tibble: 5,105 x 12
##    ResidenceCity ResidenceCounty ResidenceState DeathCity DeathCounty InjuryCity
##    <chr>         <chr>           <chr>          <chr>     <chr>       <chr>     
##  1 <NA>          <NA>            <NA>           <NA>      <NA>        <NA>      
##  2 Norwalk       <NA>            <NA>           Norwalk   Fairfield   <NA>      
##  3 Sandy Hook    Fairfield       CT             Danbury   <NA>        Unknown   
##  4 Rye           Westchester     NY             Greenwich <NA>        Rye       
##  5 Flushing      Queens          <NA>           Greenwich Fairfield   <NA>      
##  6 Bristol       <NA>            <NA>           Bristol   Hartford    <NA>      
##  7 West Hartford Hartford        <NA>           West Har… Hartford    <NA>      
##  8 Hamden        New Haven       <NA>           New Haven New Haven   <NA>      
##  9 East Hartford Hartford        <NA>           East Har… Hartford    <NA>      
## 10 Montville     New London      <NA>           Montville New London  <NA>      
## # … with 5,095 more rows, and 6 more variables: InjuryCounty <chr>,
## #   LocationifOther <chr>, DescriptionofInjury <chr>, InjuryPlace <chr>,
## #   COD <chr>, OtherSignifican <chr>
```

Now let's combine columns related to the drug taken. 

First, we need to replace each column variable that has a "Y" with the name of the column.

```r
for (i in 1:length(df3)) {
    df3[[i]] <- str_replace(df3[[i]], "Y", colnames(df3)[i])
}
df3%>%
  select(24:31) #show changed columns
```

```
## # A tibble: 5,105 x 8
##    Heroin Cocaine Fentanyl FentanylAnalogue Oxycodone Oxymorphone Ethanol
##    <chr>  <chr>   <chr>    <chr>            <chr>     <chr>       <chr>  
##  1 <NA>   <NA>    Fentanyl <NA>             <NA>      <NA>        <NA>   
##  2 <NA>   Cocaine <NA>     <NA>             <NA>      <NA>        <NA>   
##  3 Heroin Cocaine <NA>     <NA>             <NA>      <NA>        <NA>   
##  4 Heroin <NA>    Fentanyl <NA>             <NA>      <NA>        <NA>   
##  5 <NA>   <NA>    Fentanyl <NA>             <NA>      <NA>        <NA>   
##  6 Heroin <NA>    <NA>     <NA>             <NA>      <NA>        <NA>   
##  7 Heroin <NA>    <NA>     <NA>             <NA>      <NA>        <NA>   
##  8 <NA>   Cocaine <NA>     <NA>             <NA>      <NA>        <NA>   
##  9 Heroin <NA>    <NA>     <NA>             <NA>      <NA>        <NA>   
## 10 <NA>   <NA>    <NA>     <NA>             Oxycodone <NA>        <NA>   
## # … with 5,095 more rows, and 1 more variable: Hydrocodone <chr>
```

Next, we combine the drugs into one column.

```r
df3 <- df3%>%
  unite(col = Drug, Heroin, Cocaine, Fentanyl, FentanylAnalogue, Oxycodone, Oxymorphone, Ethanol, Hydrocodone, Benzodiazepine, Methadone, Amphet, Tramad, Morphine_NotHeroin, Hydromorphone, sep =" & ",na.rm = TRUE)
df3%>%
  select(Drug)
```

```
## # A tibble: 5,105 x 1
##    Drug                                   
##    <chr>                                  
##  1 Fentanyl & Hydrocodone & Benzodiazepine
##  2 Cocaine                                
##  3 Heroin & Cocaine                       
##  4 Heroin & Fentanyl                      
##  5 Fentanyl                               
##  6 Heroin                                 
##  7 Heroin                                 
##  8 Cocaine                                
##  9 Heroin                                 
## 10 Oxycodone                              
## # … with 5,095 more rows
```
…
Before visualizing the data let's make sure datatypes are corrected for variables we want to visualize. 

```r
df3$DeathMonth<- factor(df3$DeathMonth, levels=c(1,2,3,4,5,6,7,8,9,10,11,12))
df3$DeathYear<- factor(df3$DeathYear, levels=c(2012,2013,2014,2016,2018))
df3$Sex<- factor(df3$Sex, levels=c("Male", "Female"))
df3 <- df3%>%
  mutate(Age = as.integer(Age))%>%
  mutate(Drug = as.factor(Drug))
df3
```

```
## # A tibble: 5,105 x 24
##    ID    DeathMonth DeathDay DeathYear ReportMonth ReportDay ReportYear   Age
##    <chr> <fct>      <chr>    <fct>     <chr>       <chr>     <chr>      <int>
##  1 14-0… <NA>       <NA>     <NA>      6           28        2014          NA
##  2 13-0… 3          21       2013      <NA>        <NA>      <NA>          48
##  3 16-0… 3          13       2016      <NA>        <NA>      <NA>          30
##  4 16-0… 3          31       2016      <NA>        <NA>      <NA>          23
##  5 13-0… 2          13       2013      <NA>        <NA>      <NA>          22
##  6 14-0… 6          29       2014      <NA>        <NA>      <NA>          23
##  7 12-0… 8          12       2012      <NA>        <NA>      <NA>          21
##  8 13-0… 11         10       2013      <NA>        <NA>      <NA>          40
##  9 12-0… 4          25       2012      <NA>        <NA>      <NA>          40
## 10 13-0… 5          15       2013      <NA>        <NA>      <NA>          50
## # … with 5,095 more rows, and 16 more variables: Sex <fct>, Race <fct>,
## #   ResidenceCity <chr>, ResidenceCounty <chr>, ResidenceState <fct>,
## #   DeathCity <chr>, DeathCounty <chr>, Location <chr>, LocationifOther <chr>,
## #   DescriptionofInjury <chr>, InjuryPlace <chr>, InjuryCity <chr>,
## #   InjuryCounty <chr>, COD <chr>, OtherSignifican <chr>, Drug <fct>
```
…
We're going to make a new dataframe with only the 5 most common drug combinations, so that we can conduct further exploratory data analysis.

```r
df4 <- df4%>%
  slice(1:5)
df5 <- df3%>%
  filter(Drug %in% df4$Drug)
df5
```

```
## # A tibble: 1,655 x 24
##    ID    DeathMonth DeathDay DeathYear ReportMonth ReportDay ReportYear   Age
##    <chr> <fct>      <chr>    <fct>     <chr>       <chr>     <chr>      <int>
##  1 13-0… 3          21       2013      <NA>        <NA>      <NA>          48
##  2 16-0… 3          13       2016      <NA>        <NA>      <NA>          30
##  3 16-0… 3          31       2016      <NA>        <NA>      <NA>          23
##  4 13-0… 2          13       2013      <NA>        <NA>      <NA>          22
##  5 14-0… 6          29       2014      <NA>        <NA>      <NA>          23
##  6 12-0… 8          12       2012      <NA>        <NA>      <NA>          21
##  7 13-0… 11         10       2013      <NA>        <NA>      <NA>          40
##  8 12-0… 4          25       2012      <NA>        <NA>      <NA>          40
##  9 12-0… 8          23       2012      <NA>        <NA>      <NA>          26
## 10 15-0… <NA>       <NA>     <NA>      <NA>        <NA>      <NA>          NA
## # … with 1,645 more rows, and 16 more variables: Sex <fct>, Race <fct>,
## #   ResidenceCity <chr>, ResidenceCounty <chr>, ResidenceState <fct>,
## #   DeathCity <chr>, DeathCounty <chr>, Location <chr>, LocationifOther <chr>,
## #   DescriptionofInjury <chr>, InjuryPlace <chr>, InjuryCity <chr>,
## #   InjuryCounty <chr>, COD <chr>, OtherSignifican <chr>, Drug <fct>
```
…
#### Further Data Cleaning
There are several columns of this dataset with hundreds of different values. For instance, here is the *LocationifOther* variable. We can see that there are 293 unique values. Looking through them, many indicate a person was at a hotel, motel, or lodge. Another common trend is that a person was at another person's residence. Finally, many people were found in a vehicle, car, or cab.

```r
df3%>%
  select(LocationifOther)%>%
  group_by(LocationifOther)%>%
  summarize(n = n())
```

```
## # A tibble: 293 x 2
##    LocationifOther                  n
##    <chr>                        <int>
##  1 "\"Sober House\""                1
##  2 "Abandon House"                  1
##  3 "Abandoned Building"             4
##  4 "Abandoned Garage"               2
##  5 "Abandoned House"                1
##  6 "Almar Motel"                    1
##  7 "America's Best Hotel"           1
##  8 "America's Best Value Hotel"     1
##  9 "American Inn Hotel"             1
## 10 "American Motor Lodge"           2
## # … with 283 more rows
```
…
```
## Warning: `cols` is now required.
## Please use `cols = c(LocationifOther)`
```

```r
df8%>%
  select(LocationifOther)%>%
  group_by(LocationifOther)%>%
  summarize(n = n())
```

```
## # A tibble: 25 x 2
##    LocationifOther     n
##    <chr>           <int>
##  1 Boyfriend          12
##  2 Brother             8
##  3 Cab                 1
##  4 Car                10
##  5 Companion           1
##  6 Cousin              3
##  7 Dad                 1
##  8 Father              7
##  9 Friend            146
## 10 Girlfriend         15
## # … with 15 more rows
```
…
Now we can unite the columns.

```r
df8 <- df8%>% 
  mutate(Location = as.character(Location))%>%
  mutate(LocationifOther = as.character(LocationifOther))%>%
  unite(col = Location, Location, LocationifOther, na.rm = TRUE)
df8%>%
  select(Location)
```

```
## # A tibble: 4,931 x 1
##    Location   
##    <chr>      
##  1 ""         
##  2 "Hospital" 
##  3 "Hospital" 
##  4 "Hospital" 
##  5 "Hospital" 
##  6 "Residence"
##  7 "Residence"
##  8 "Hospital" 
##  9 "Residence"
## 10 "Residence"
## # … with 4,921 more rows
```
…
Another variable that has many values is *DescriptionofInjury*. There are 248 unique values. 

```r
df3%>%
  select(DescriptionofInjury)%>%
  group_by(DescriptionofInjury)%>%
  summarize(n = n())
```

```
## # A tibble: 259 x 2
##    DescriptionofInjury                       n
##    <chr>                                 <int>
##  1 Abuse                                     1
##  2 Abuse of Inhalants                        1
##  3 Abuse of Medication                       6
##  4 Abuse of Medications                      3
##  5 Abuse of Prescribed and Illicit Drugs     1
##  6 Abused Medication                         1
##  7 Abused Medications                        2
##  8 Abused Prescription Medications           4
##  9 Accidental Drug Overdose                  1
## 10 Acute and Chronic Substance Abuse        17
## # … with 249 more rows
```
…
```
## Warning: Expected 2 pieces. Missing pieces filled with `NA` in 1756 rows [1, 2,
## 5, 6, 7, 8, 9, 10, 11, 12, 13, 14, 16, 17, 18, 21, 23, 28, 29, 30, ...].
```

```r
df6
```

```
## # A tibble: 4,937 x 6
##    DeathCityLon DeathCityLat ResidenceLon ResidenceLat InjuryCityLon
##           <dbl>        <dbl>        <dbl>        <dbl>         <dbl>
##  1        -72.7         41.6        -72.7         41.6         -72.7
##  2        -73.4         41.1        -73.4         41.1         -72.7
##  3        -72.9         41.7        -72.9         41.7         -72.7
##  4        -72.7         41.8        -72.7         41.8         -72.7
##  5        -72.9         41.3        -72.9         41.4         -72.7
##  6        -72.6         41.8        -72.6         41.8         -72.7
##  7        -72.1         41.5        -72.1         41.5         -72.7
##  8        -73.1         41.2        -72.7         41.6         -72.7
##  9        -72.9         41.3        -72.7         41.6         -72.7
## 10        -72.7         41.6        -72.7         41.6         -72.7
## # … with 4,927 more rows, and 1 more variable: InjuryCityLat <dbl>
```
…
